archivos_verilog/master/spi_masterr.vcd
$date
	Sat Nov 23 13:20:10 2024
$end
$version
	Icarus Verilog
$end
$timescale
	1s
$end
$scope module spi_master_tb $end
$var wire 32 ! mem_rdata [31:0] $end
$var wire 1 " mem_ready $end
$var wire 1 # interrpt $end
$var wire 1 $ SS $end
$var wire 1 % SCK $end
$var wire 1 & MOSI $end
$var reg 1 ' MISO $end
$var reg 1 ( clk_cpu $end
$var reg 32 ) cpu_addr [31:0] $end
$var reg 1 * cpu_instr $end
$var reg 1 + cpu_valid $end
$var reg 32 , cpu_wdata [31:0] $end
$var reg 4 - cpu_wstrb [3:0] $end
$var reg 1 . rst $end
$scope module uut $end
$var wire 1 ' MISO $end
$var wire 1 ( clk_cpu $end
$var wire 32 / cpu_addr [31:0] $end
$var wire 1 * cpu_instr $end
$var wire 1 + cpu_valid $end
$var wire 32 0 cpu_wdata [31:0] $end
$var wire 4 1 cpu_wstrb [3:0] $end
$var wire 32 2 mem_rdata [31:0] $end
$var wire 1 " mem_ready $end
$var wire 1 . rst $end
$var wire 1 # interrpt $end
$var wire 1 $ SS $end
$var wire 32 3 SPI_DATA_OUT [31:0] $end
$var wire 32 4 SPI_DATA_IN [31:0] $end
$var wire 9 5 SPI_CTRL [8:0] $end
$var wire 32 6 SPI_BITRATE [31:0] $end
$var wire 1 % SCK $end
$var wire 1 & MOSI $end
$scope module spi_master $end
$var wire 1 ' MISO $end
$var wire 1 ( clk_cpu $end
$var wire 1 . rst $end
$var wire 1 7 load_data_in $end
$var wire 1 8 load_data $end
$var wire 1 # interrpt $end
$var wire 1 9 en_SCK $end
$var wire 1 : done $end
$var wire 1 ; clk_divider $end
$var wire 1 $ SS $end
$var wire 32 < SPI_DATA_OUT [31:0] $end
$var wire 2 = SPI_DATA_LEN [1:0] $end
$var wire 32 > SPI_DATA_IN_I [31:0] $end
$var wire 32 ? SPI_DATA_IN [31:0] $end
$var wire 9 @ SPI_CTRL [8:0] $end
$var wire 32 A SPI_BITRATE [31:0] $end
$var wire 1 B SCK_inter $end
$var wire 1 % SCK $end
$var wire 32 C NEW_SPI_DATA_OUT [31:0] $end
$var wire 1 & MOSI $end
$scope module clock_divider $end
$var wire 1 ( clk_cpu $end
$var wire 1 . rst $end
$var wire 32 D spi_bitrate [31:0] $end
$var wire 1 9 en $end
$var reg 1 ; SCK $end
$var integer 32 E counter [31:0] $end
$upscope $end
$scope module piso_sipo_spi $end
$var wire 1 ' MISO $end
$var wire 1 . rst $end
$var wire 1 8 load $end
$var wire 32 F data_in [31:0] $end
$var wire 1 B clk $end
$var wire 2 G SPI_DATA_LEN [1:0] $end
$var parameter 32 H DATA_WIDTH $end
$var reg 1 & MOSI $end
$var reg 6 I couter_bit [5:0] $end
$var reg 5 J data_len [4:0] $end
$var reg 32 K data_out [31:0] $end
$var reg 1 : done $end
$var reg 1 7 load_data_in $end
$var reg 32 L shift_reg [31:0] $end
$upscope $end
$scope module spi_control $end
$var wire 32 M SPI_DATA_IN_I [31:0] $end
$var wire 1 $ SS $end
$var wire 1 ( clk_cpu $end
$var wire 1 ; clk_divider $end
$var wire 1 : done $end
$var wire 1 7 load_data_in $end
$var wire 1 . rst $end
$var wire 1 N SPI_START $end
$var wire 1 O SPI_ON $end
$var wire 2 P SPI_MODE [1:0] $end
$var wire 1 Q SPI_I_MSK $end
$var wire 1 R SPI_FRAME_START $end
$var wire 32 S SPI_DATA_OUT [31:0] $end
$var wire 2 T SPI_DATA_LEN [1:0] $end
$var wire 9 U SPI_CTRL [8:0] $end
$var wire 1 V SPI_BIT_ORDER $end
$var wire 1 % SCK $end
$var wire 32 W NEW_SPI_DATA_OUT [31:0] $end
$var wire 32 X NEW_SPI_DATA_IN [31:0] $end
$var parameter 3 Y DONE $end
$var parameter 3 Z FRAME_STOP $end
$var parameter 3 [ IDLE $end
$var parameter 3 \ LOAD $end
$var parameter 3 ] TRANSMIT $end
$var reg 1 B SCK_inter $end
$var reg 3 ^ corrent_state [2:0] $end
$var reg 1 9 en_SCK $end
$var reg 1 # interrpt $end
$var reg 1 8 load_data $end
$var reg 3 _ next_state [2:0] $end
$scope module data_order $end
$var wire 1 V SPI_BIT_ORDER $end
$var wire 32 ` SPI_DATA_IN [31:0] $end
$var wire 1 7 en $end
$var wire 1 . rst $end
$var parameter 32 a DATA_WIDTH $end
$var reg 32 b SPI_DATA_OUT [31:0] $end
$var integer 32 c i [31:0] $end
$upscope $end
$scope module data_order_in $end
$var wire 1 V SPI_BIT_ORDER $end
$var wire 1 8 en $end
$var wire 1 . rst $end
$var wire 32 d SPI_DATA_IN [31:0] $end
$var parameter 32 e DATA_WIDTH $end
$var reg 32 f SPI_DATA_OUT [31:0] $end
$var integer 32 g i [31:0] $end
$upscope $end
$upscope $end
$upscope $end
$scope module spi_memory $end
$var wire 32 h SPI_DATA_IN [31:0] $end
$var wire 1 ( clk_cpu $end
$var wire 32 i cpu_addr [31:0] $end
$var wire 1 * cpu_instr $end
$var wire 1 + cpu_valid $end
$var wire 32 j cpu_wdata [31:0] $end
$var wire 4 k cpu_wstrb [3:0] $end
$var wire 1 . rst $end
$var parameter 32 l ADDR_SPI_BITRATE $end
$var parameter 32 m ADDR_SPI_CTRL $end
$var parameter 32 n ADDR_SPI_DATA_IN $end
$var parameter 32 o ADDR_SPI_DATA_OUT $end
$var reg 32 p SPI_BITRATE [31:0] $end
$var reg 9 q SPI_CTRL [8:0] $end
$var reg 32 r SPI_DATA_OUT [31:0] $end
$var reg 32 s mem_rdata [31:0] $end
$var reg 1 t mem_ready $end
$upscope $end
$upscope $end
$upscope $end
$enddefinitions $end
$comment Show the parameter values. $end
$dumpall
b100001 o
b100010 n
b100011 m
b100000 l
b100000 e
b100000 a
b10 ]
b1 \
b0 [
b100 Z
b11 Y
b100000 H
$end
#0
$dumpvars
0t
b0 s
b0 r
b0 q
b0 p
b0 k
b0 j
b0 i
b0 h
bx g
b0 f
b0 d
bx c
b0 b
b0 `
b0 _
b0 ^
b0 X
b0 W
0V
b0 U
b0 T
b0 S
0R
0Q
b0 P
0O
0N
b0 M
b0 L
b0 K
b0 J
b100001 I
b0 G
b0 F
b0 E
b0 D
b0 C
0B
b0 A
b0 @
b0 ?
b0 >
b0 =
b0 <
0;
0:
09
08
07
b0 6
b0 5
b0 4
b0 3
bz 2
b0 1
b0 0
b0 /
1.
b0 -
b0 ,
0+
0*
b0 )
0(
0'
0&
0%
0$
x#
z"
bz !
$end
#5
1(
#10
0(
#15
1(
#20
0(
#25
1(
#30
0(
#35
1(
#40
0(
#45
1(
#50
0(
#55
1(
#60
0(
#65
1(
#70
0(
#75
1(
#80
0(
#85
1(
#90
0(
#95
1(
#100
0(
0.
#105
1(
#110
1t
b10 6
b10 A
b10 D
b10 p
0(
1+
b1111 -
b1111 1
b1111 k
b10 ,
b10 0
b10 j
b100000 )
b100000 /
b100000 i
#115
1(
#120
0t
0(
0+
#125
1(
#130
1t
b10000000000000011 3
b10000000000000011 <
b10000000000000011 S
b10000000000000011 d
b10000000000000011 r
0(
1+
b1000000000000011 ,
b1000000000000011 0
b1000000000000011 j
b100001 )
b100001 /
b100001 i
#135
1(
#140
0t
0(
0+
#145
1(
#150
b100000 c
17
1$
1:
1B
1%
1R
b1 =
b1 G
b1 T
1V
b11 P
1t
b11101100 5
b11101100 @
b11101100 U
b11101100 q
0(
1+
b11101100 ,
b11101100 0
b11101100 j
b100011 )
b100011 /
b100011 i
#155
1(
#160
0t
0(
0+
#165
1(
#170
0(
#175
1(
#180
0(
#185
1(
#190
0(
#195
1(
#200
0(
#205
1(
#210
0(
#215
1(
#220
0(
#225
1(
#230
0(
#235
1(
#240
0(
#245
1(
#250
0(
#255
1(
#260
19
b1 _
1N
1O
1t
b111101110 5
b111101110 @
b111101110 U
b111101110 q
0(
1+
b111101110 ,
b111101110 0
b111101110 j
#265
b11000000000000001000000000000000 L
b10000 J
0$
0:
b0 I
b11000000000000001000000000000000 C
b11000000000000001000000000000000 F
b11000000000000001000000000000000 W
b11000000000000001000000000000000 f
b100000 g
b10 _
18
b1 ^
b1 E
1(
#270
0t
0(
1'
0+
#275
0B
0%
08
1;
b0 E
b10 ^
1(
#280
0(
#285
b1 E
1(
#290
0(
#295
07
b1 I
b10000000000000010000000000000001 L
1&
1B
1%
0;
b0 E
1(
#300
0(
#305
b1 E
1(
#310
0(
#315
0B
0%
1;
b0 E
1(
#320
0(
0'
#325
b1 E
1(
#330
0(
#335
b10 I
b100000000000000010 L
0&
1B
1%
0;
b0 E
1(
#340
0(
#345
b1 E
1(
#350
0(
#355
0B
0%
1;
b0 E
1(
#360
0(
#365
b1 E
1(
#370
0(
1'
#375
b11 I
b1000000000000000101 L
1B
1%
0;
b0 E
1(
#380
0(
#385
b1 E
1(
#390
0(
#395
0B
0%
1;
b0 E
1(
#400
0(
#405
b1 E
1(
#410
0(
#415
b100 I
b10000000000000001011 L
1B
1%
0;
b0 E
1(
#420
0(
0'
#425
b1 E
1(
#430
0(
#435
0B
0%
1;
b0 E
1(
#440
0(
#445
b1 E
1(
#450
0(
#455
b101 I
b100000000000000010110 L
1B
1%
0;
b0 E
1(
#460
0(
#465
b1 E
1(
#470
0(
#475
0B
0%
1;
b0 E
1(
#480
0(
#485
b1 E
1(
#490
0(
#495
b110 I
b1000000000000000101100 L
1B
1%
0;
b0 E
1(
#500
0(
#505
b1 E
1(
#510
0(
#515
0B
0%
1;
b0 E
1(
#520
0(
#525
b1 E
1(
#530
0(
#535
b111 I
b10000000000000001011000 L
1B
1%
0;
b0 E
1(
#540
0(
#545
b1 E
1(
#550
0(
#555
0B
0%
1;
b0 E
1(
#560
0(
#565
b1 E
1(
#570
0(
#575
b1000 I
b100000000000000010110000 L
1B
1%
0;
b0 E
1(
#580
0(
#585
b1 E
1(
#590
0(
#595
0B
0%
1;
b0 E
1(
#600
0(
#605
b1 E
1(
#610
0(
#615
b1001 I
b1000000000000000101100000 L
1B
1%
0;
b0 E
1(
#620
0(
#625
b1 E
1(
#630
0(
#635
0B
0%
1;
b0 E
1(
#640
0(
#645
b1 E
1(
#650
0(
#655
b1010 I
b10000000000000001011000000 L
1B
1%
0;
b0 E
1(
#660
0(
#665
b1 E
1(
#670
0(
#675
0B
0%
1;
b0 E
1(
#680
0(
#685
b1 E
1(
#690
0(
#695
b1011 I
b100000000000000010110000000 L
1B
1%
0;
b0 E
1(
#700
0(
#705
b1 E
1(
#710
0(
#715
0B
0%
1;
b0 E
1(
#720
0(
#725
b1 E
1(
#730
0(
#735
b1100 I
b1000000000000000101100000000 L
1B
1%
0;
b0 E
1(
#740
0(
#745
b1 E
1(
#750
0(
#755
0B
0%
1;
b0 E
1(
#760
0(
#765
b1 E
1(
#770
0(
#775
b1101 I
b10000000000000001011000000000 L
1B
1%
0;
b0 E
1(
#780
0(
#785
b1 E
1(
#790
0(
#795
0B
0%
1;
b0 E
1(
#800
0(
#805
b1 E
1(
#810
0(
#815
b1110 I
b100000000000000010110000000000 L
1B
1%
0;
b0 E
1(
#820
0(
#825
b1 E
1(
#830
0(
#835
0B
0%
1;
b0 E
1(
#840
0(
#845
b1 E
1(
#850
0(
#855
b1111 I
b1000000000000000101100000000000 L
1B
1%
0;
b0 E
1(
#860
0(
#865
b1 E
1(
#870
0(
#875
0B
0%
1;
b0 E
1(
#880
0(
#885
b1 E
1(
#890
0(
#895
b10000 I
b10000000000000001011000000000000 L
1B
1%
0;
b0 E
1(
#900
0(
#905
b1 E
1(
#910
0(
#915
0B
0%
1;
b0 E
1(
#920
0(
#925
b1 E
1(
#930
0(
#935
b11010000000000000001 4
b11010000000000000001 ?
b11010000000000000001 X
b11010000000000000001 b
b11010000000000000001 h
b11 _
b100000 c
17
1$
1:
b10000000000000001011000000000000 >
b10000000000000001011000000000000 K
b10000000000000001011000000000000 M
b10000000000000001011000000000000 `
1B
1%
0;
b0 E
1(
#940
0(
#945
b0 _
b11 ^
b1 E
1(
#950
0(
#955
0B
0%
b1 _
1;
b0 E
b0 ^
1(
#960
0(
#965
0$
0:
b0 I
b11000000000000001000000000000000 L
b100000 g
b10 _
18
b1 ^
b1 E
1(
#970
0(
#975
07
b1 I
b10000000000000010000000000000000 L
1&
1B
1%
08
0;
b0 E
b10 ^
1(
#980
0(
#985
b1 E
1(
#990
0(
#995
0B
0%
1;
b0 E
1(
#1000
0(
#1005
b1 E
1(
#1010
0(
#1015
b10 I
b100000000000000000 L
0&
1B
1%
0;
b0 E
1(
#1020
0(
#1025
b1 E
1(
#1030
0(
#1035
0B
0%
1;
b0 E
1(
#1040
0(
#1045
b1 E
1(
#1050
0(
#1055
b11 I
b1000000000000000000 L
1B
1%
0;
b0 E
1(
#1060
0(
#1065
b1 E
1(
#1070
0(
#1075
0B
0%
1;
b0 E
1(
#1080
0(
#1085
b1 E
1(
#1090
0(
#1095
b100 I
b10000000000000000000 L
1B
1%
0;
b0 E
1(
#1100
0(
#1105
b1 E
1(
#1110
0(
#1115
0B
0%
1;
b0 E
1(
#1120
0(
#1125
b1 E
1(
#1130
0(
#1135
b101 I
b100000000000000000000 L
1B
1%
0;
b0 E
1(
#1140
0(
#1145
b1 E
1(
#1150
0(
#1155
0B
0%
1;
b0 E
1(
#1160
0(
#1165
b1 E
1(
#1170
0(
#1175
b110 I
b1000000000000000000000 L
1B
1%
0;
b0 E
1(
#1180
0(
#1185
b1 E
1(
#1190
0(
#1195
0B
0%
1;
b0 E
1(
#1200
0(
#1205
b1 E
1(
#1210
0(
#1215
b111 I
b10000000000000000000000 L
1B
1%
0;
b0 E
1(
#1220
0(
#1225
b1 E
1(
#1230
0(
#1235
0B
0%
1;
b0 E
1(
#1240
0(
#1245
b1 E
1(
#1250
0(
#1255
b1000 I
b100000000000000000000000 L
1B
1%
0;
b0 E
1(
#1260
0(
#1265
b1 E
1(
#1270
0(
#1275
0B
0%
1;
b0 E
1(
#1280
0(
#1285
b1 E
1(
#1290
0(
#1295
b1001 I
b1000000000000000000000000 L
1B
1%
0;
b0 E
1(
#1300
0(
#1305
b1 E
1(
#1310
0(
#1315
0B
0%
1;
b0 E
1(
#1320
0(
#1325
b1 E
1(
#1330
0(
#1335
b1010 I
b10000000000000000000000000 L
1B
1%
0;
b0 E
1(
#1340
0(
#1345
b1 E
1(
#1350
0(
#1355
0B
0%
1;
b0 E
1(
#1360
0(
#1365
b1 E
1(
#1370
0(
#1375
b1011 I
b100000000000000000000000000 L
1B
1%
0;
b0 E
1(
#1380
0(
#1385
b1 E
1(
#1390
0(
#1395
0B
0%
1;
b0 E
1(
#1400
0(
#1405
b1 E
1(
#1410
0(
#1415
b1100 I
b1000000000000000000000000000 L
1B
1%
0;
b0 E
1(
#1420
0(
#1425
b1 E
1(
#1430
0(
#1435
0B
0%
1;
b0 E
1(
#1440
0(
#1445
b1 E
1(
#1450
0(
#1455
b1101 I
b10000000000000000000000000000 L
1B
1%
0;
b0 E
1(
#1460
0(
#1465
b1 E
1(
#1470
0(
#1475
0B
0%
1;
b0 E
1(
#1480
0(
#1485
b1 E
1(
#1490
0(
#1495
b1110 I
b100000000000000000000000000000 L
1B
1%
0;
b0 E
1(
#1500
0(
#1505
b1 E
1(
#1510
0(
#1515
0B
0%
1;
b0 E
1(
#1520
0(
#1525
b1 E
1(
#1530
0(
#1535
b1111 I
b1000000000000000000000000000000 L
1B
1%
0;
b0 E
1(
#1540
0(
#1545
b1 E
1(
#1550
0(
#1555
0B
0%
1;
b0 E
1(
#1560
0(
#1565
b1 E
1(
#1570
0(
#1575
b10000 I
b10000000000000000000000000000000 L
1B
1%
0;
b0 E
1(
#1580
0(
#1585
b1 E
1(
#1590
0(
#1595
0B
0%
1;
b0 E
1(
#1600
0(
#1605
b1 E
1(
#1610
0(
#1615
b1 4
b1 ?
b1 X
b1 b
b1 h
b11 _
b100000 c
17
1$
1:
b10000000000000000000000000000000 >
b10000000000000000000000000000000 K
b10000000000000000000000000000000 M
b10000000000000000000000000000000 `
1B
1%
0;
b0 E
1(
#1620
0(
#1625
b0 _
b11 ^
b1 E
1(
#1630
0(
#1635
0B
0%
b1 _
1;
b0 E
b0 ^
1(
#1640
0(
#1645
0$
0:
b0 I
b11000000000000001000000000000000 L
b100000 g
b10 _
18
b1 ^
b1 E
1(
#1650
0(
#1655
07
b1 I
b10000000000000010000000000000000 L
1&
1B
1%
08
0;
b0 E
b10 ^
1(
#1660
0(
#1665
b1 E
1(
#1670
0(
#1675
0B
0%
1;
b0 E
1(
#1680
0(
#1685
b1 E
1(
#1690
0(
#1695
b10 I
b100000000000000000 L
0&
1B
1%
0;
b0 E
1(
#1700
0(
#1705
b1 E
1(
#1710
0(
#1715
0B
0%
1;
b0 E
1(
#1720
0(
#1725
b1 E
1(
#1730
0(
#1735
b11 I
b1000000000000000000 L
1B
1%
0;
b0 E
1(
#1740
0(
#1745
b1 E
1(
#1750
0(
#1755
0B
0%
1;
b0 E
1(
#1760
0(
#1765
b1 E
1(
#1770
0(
#1775
b100 I
b10000000000000000000 L
1B
1%
0;
b0 E
1(
#1780
0(
#1785
b1 E
1(
#1790
0(
#1795
0B
0%
1;
b0 E
1(
#1800
0(
#1805
b1 E
1(
#1810
0(
#1815
b101 I
b100000000000000000000 L
1B
1%
0;
b0 E
1(
#1820
0(
#1825
b1 E
1(
#1830
0(
#1835
0B
0%
1;
b0 E
1(
#1840
0(
#1845
b1 E
1(
#1850
0(
#1855
b110 I
b1000000000000000000000 L
1B
1%
0;
b0 E
1(
#1860
0(
#1865
b1 E
1(
#1870
0(
#1875
0B
0%
1;
b0 E
1(
#1880
0(
#1885
b1 E
1(
#1890
0(
#1895
b111 I
b10000000000000000000000 L
1B
1%
0;
b0 E
1(
#1900
0(
#1905
b1 E
1(
#1910
0(
#1915
0B
0%
1;
b0 E
1(
#1920
0(
#1925
b1 E
1(
#1930
0(
#1935
b1000 I
b100000000000000000000000 L
1B
1%
0;
b0 E
1(
#1940
0(
#1945
b1 E
1(
#1950
0(
#1955
0B
0%
1;
b0 E
1(
#1960
0(
#1965
b1 E
1(
#1970
0(
#1975
b1001 I
b1000000000000000000000000 L
1B
1%
0;
b0 E
1(
#1980
0(
#1985
b1 E
1(
#1990
0(
#1995
0B
0%
1;
b0 E
1(
#2000
0(
#2005
b1 E
1(
#2010
0(
#2015
b1010 I
b10000000000000000000000000 L
1B
1%
0;
b0 E
1(
#2020
0(
#2025
b1 E
1(
#2030
0(
#2035
0B
0%
1;
b0 E
1(
#2040
0(
#2045
b1 E
1(
#2050
0(
#2055
b1011 I
b100000000000000000000000000 L
1B
1%
0;
b0 E
1(
#2060
0(
#2065
b1 E
1(
#2070
0(
#2075
0B
0%
1;
b0 E
1(
#2080
0(
#2085
b1 E
1(
#2090
0(
#2095
b1100 I
b1000000000000000000000000000 L
1B
1%
0;
b0 E
1(
#2100
0(
#2105
b1 E
1(
#2110
0(
#2115
0B
0%
1;
b0 E
1(
#2120
0(
#2125
b1 E
1(
#2130
0(
#2135
b1101 I
b10000000000000000000000000000 L
1B
1%
0;
b0 E
1(
#2140
0(
#2145
b1 E
1(
#2150
0(
#2155
0B
0%
1;
b0 E
1(
#2160
0(
#2165
b1 E
1(
#2170
0(
#2175
b1110 I
b100000000000000000000000000000 L
1B
1%
0;
b0 E
1(
#2180
0(
#2185
b1 E
1(
#2190
0(
#2195
0B
0%
1;
b0 E
1(
#2200
0(
#2205
b1 E
1(
#2210
0(
#2215
b1111 I
b1000000000000000000000000000000 L
1B
1%
0;
b0 E
1(
#2220
0(
#2225
b1 E
1(
#2230
0(
#2235
0B
0%
1;
b0 E
1(
#2240
0(
#2245
b1 E
1(
#2250
0(
#2255
b10000 I
b10000000000000000000000000000000 L
1B
1%
0;
b0 E
1(
#2260
0(
#2265
b1 E
1(
#2270
0(
#2275
0B
0%
1;
b0 E
1(
#2280
0(
#2285
b1 E
1(
#2290
0(
#2295
b100000 c
b11 _
17
1$
1:
1B
1%
0;
b0 E
1(
#2300
0(
#2305
b0 _
b11 ^
b1 E
1(
#2310
0(
#2315
0B
0%
b1 _
1;
b0 E
b0 ^
1(
#2320
0(
#2325
0$
0:
b0 I
b11000000000000001000000000000000 L
b100000 g
b10 _
18
b1 ^
b1 E
1(
#2330
0(
#2335
07
b1 I
b10000000000000010000000000000000 L
1&
1B
1%
08
0;
b0 E
b10 ^
1(
#2340
0(
#2345
b1 E
1(
#2350
0(
#2355
0B
0%
1;
b0 E
1(
#2360
0(
#2365
b1 E
1(
#2370
0(
#2375
b10 I
b100000000000000000 L
0&
1B
1%
0;
b0 E
1(
#2380
0(
#2385
b1 E
1(
#2390
0(
#2395
0B
0%
1;
b0 E
1(
#2400
0(
#2405
b1 E
1(
#2410
0(
#2415
b11 I
b1000000000000000000 L
1B
1%
0;
b0 E
1(
